{
  "appId": "io.ionic.starter",
  "appName": "quileia-app-ionic",
  "bundledWebRuntime": false,
  "npmClient": "npm",
  "webDir": "www",
  "server": {
    "allowNavigation": []
  },
  "android": {
    "allowMixedContent": true
  },
  "plugins": {
    "SplashScreen": {
      "launchShowDuration": 0
    }
  },
  "cordova": {}
}
